{
  "project_info": {
    "project_number": "302399510036",
    "project_id": "madolsss",
    "storage_bucket": "madolsss.appspot.com"
  },
  "client": [
    {
      "client_info": {
        "mobilesdk_app_id": "1:302399510036:android:48306d05da847590317901",
        "android_client_info": {
          "package_name": "com.oversoar.madolsss"
        }
      },
      "oauth_client": [
        {
          "client_id": "302399510036-tbjltt997lghff5pp7bjf4tb3ufqr1bh.apps.googleusercontent.com",
          "client_type": 3
        }
      ],
      "api_key": [
        {
          "current_key": "AIzaSyCFYoJi_P3GZU3eAmYnQm-IPfzsA6DV5ec"
        }
      ],
      "services": {
        "appinvite_service": {
          "other_platform_oauth_client": [
            {
              "client_id": "302399510036-tbjltt997lghff5pp7bjf4tb3ufqr1bh.apps.googleusercontent.com",
              "client_type": 3
            },
            {
              "client_id": "302399510036-tdq4d4treeev4jnjgfhuboepi2d85a2e.apps.googleusercontent.com",
              "client_type": 2,
              "ios_info": {
                "bundle_id": "com.oversoar.madolsss"
              }
            }
          ]
        }
      }
    }
  ],
  "configuration_version": "1"
}